%YAML 1.1
%TAG !u! tag:unity3d.com,2011:
--- !u!74 &7400000
AnimationClip:
  m_ObjectHideFlags: 0
  m_PrefabParentObject: {fileID: 0}
  m_PrefabInternal: {fileID: 0}
  m_Name: Run
  serializedVersion: 6
  m_Legacy: 0
  m_Compressed: 0
  m_UseHighQualityCurve: 1
  m_RotationCurves: []
  m_CompressedRotationCurves: []
  m_EulerCurves: []
  m_PositionCurves: []
  m_ScaleCurves: []
  m_FloatCurves: []
  m_PPtrCurves:
  - curve:
    - time: 0
      value: {fileID: 21300000, guid: 344475828d4c9ca41a495e0d00f4d4d7, type: 3}
    - time: 0.083333336
      value: {fileID: 21300000, guid: 7b93120e573711c4dbd82f02263a746b, type: 3}
    - time: 0.16666667
      value: {fileID: 21300000, guid: 0fb94b9f4ac30ef41a70d79aae9c376f, type: 3}
    - time: 0.25
      value: {fileID: 21300000, guid: 1e1259899a3abb245871cdf2690f18f2, type: 3}
    - time: 0.33333334
      value: {fileID: 21300000, guid: cc941809212ecf942959ad61fd913391, type: 3}
    - time: 0.41666666
      value: {fileID: 21300000, guid: 9cc5a5bf8fd93a64682c2213b766b408, type: 3}
    - time: 0.5
      value: {fileID: 21300000, guid: b51b2d5ef9ec56a47b772746ed2fb04d, type: 3}
    - time: 0.5833333
      value: {fileID: 21300000, guid: f4e7c1682199cd64f8fb7f8a7a1ebc21, type: 3}
    attribute: m_Sprite
    path: 
    classID: 212
    script: {fileID: 0}
  m_SampleRate: 60
  m_WrapMode: 0
  m_Bounds:
    m_Center: {x: 0, y: 0, z: 0}
    m_Extent: {x: 0, y: 0, z: 0}
  m_ClipBindingConstant:
    genericBindings:
    - serializedVersion: 2
      path: 0
      attribute: 0
      script: {fileID: 0}
      typeID: 212
      customType: 23
      isPPtrCurve: 1
    pptrCurveMapping:
    - {fileID: 21300000, guid: 344475828d4c9ca41a495e0d00f4d4d7, type: 3}
    - {fileID: 21300000, guid: 7b93120e573711c4dbd82f02263a746b, type: 3}
    - {fileID: 21300000, guid: 0fb94b9f4ac30ef41a70d79aae9c376f, type: 3}
    - {fileID: 21300000, guid: 1e1259899a3abb245871cdf2690f18f2, type: 3}
    - {fileID: 21300000, guid: cc941809212ecf942959ad61fd913391, type: 3}
    - {fileID: 21300000, guid: 9cc5a5bf8fd93a64682c2213b766b408, type: 3}
    - {fileID: 21300000, guid: b51b2d5ef9ec56a47b772746ed2fb04d, type: 3}
    - {fileID: 21300000, guid: f4e7c1682199cd64f8fb7f8a7a1ebc21, type: 3}
  m_AnimationClipSettings:
    serializedVersion: 2
    m_AdditiveReferencePoseClip: {fileID: 0}
    m_AdditiveReferencePoseTime: 0
    m_StartTime: 0
    m_StopTime: 0.59999996
    m_OrientationOffsetY: 0
    m_Level: 0
    m_CycleOffset: 0
    m_HasAdditiveReferencePose: 0
    m_LoopTime: 1
    m_LoopBlend: 0
    m_LoopBlendOrientation: 0
    m_LoopBlendPositionY: 0
    m_LoopBlendPositionXZ: 0
    m_KeepOriginalOrientation: 0
    m_KeepOriginalPositionY: 1
    m_KeepOriginalPositionXZ: 0
    m_HeightFromFeet: 0
    m_Mirror: 0
  m_EditorCurves: []
  m_EulerEditorCurves: []
  m_HasGenericRootTransform: 0
  m_HasMotionFloatCurves: 0
  m_GenerateMotionCurves: 0
  m_Events: []
